{
  "project_info": {
    "project_number": "280411629817",
    "project_id": "my-first-firebase-projec-2d001",
    "storage_bucket": "my-first-firebase-projec-2d001.appspot.com"
  },
  "client": [
    {
      "client_info": {
        "mobilesdk_app_id": "1:280411629817:android:e04cd9bb9b0e70d8295a28",
        "android_client_info": {
          "package_name": "com.attractions"
        }
      },
      "oauth_client": [],
      "api_key": [
        {
          "current_key": "AIzaSyClzsVNBcFaFmRjzCu9QK8L5dwtJw111gY"
        }
      ],
      "services": {
        "appinvite_service": {
          "other_platform_oauth_client": []
        }
      }
    }
  ],
  "configuration_version": "1"
}